{
"default_level" : "INFO",
"default_appender_name" : "Console",
"default_log_directory" : "/usr/share/tomcat8/logs",
"debug": "false",

"appender_configs" : [
  {
    "name" : "Console",
    "appender_type" : "CONSOLE",
    "marshaller_type" : "LOG_FORMAT"
  },
  {
    "name" : "ResultJSON",
    "appender_type" : "FILE",
    "file_path" : "prevoty.json",
    "marshaller_type" : "PLAIN_STRING_FORMAT",
    "rollover_strategy" : "SIZE",
    "rollover_size_mb" : 25,
    "max_num_rollover_files" : 3
  },
  {
    "name" : "PrevotyLogger",
    "appender_type" : "FILE",
    "file_path" : "prevoty.log",
    "marshaller_type" : "LOG_FORMAT",
    "rollover_strategy" : "SIZE",
    "rollover_size_mb" : 25,
    "max_num_rollover_files" : 3
 }
],
"logger_configs" : [
 {
  "name": "prevoty.json",
  "level" : "INFO",
  "appender_name" : "ResultJSON"
 },
 {
  "name": "com.prevoty",
  "level" : "INFO",
  "appender_name" : "PrevotyLogger"
 }
]
}